…
## Categorizing the data

Two responses to be excluded from the analysis: “herd of primates”,
“collection of
plants”

``` r
# question1 and question2 are the sentence parts coded in the experiment 
# look at the different responses provided and categorize them 
d_main %>% distinct(d_main$response) 
```

    ## # A tibble: 60 x 1
    ##    `d_main$response`
    ##    <chr>            
    ##  1 spider monkey    
    ##  2 pug              
    ##  3 swordfish        
    ##  4 daisy            
    ##  5 hummingbird      
    ##  6 redwood          
    ##  7 monkey           
    ##  8 chiuaha          
    ##  9 swan             
    ## 10 sunflower        
    ## # ... with 50 more rows
…
